[
    {
      "id": 1,
      "name": "Сукня вишивана",
      "price": 599.99,
      "image": "https://i.pravatar.cc/300?v=${id}",
      "article": "123456",
      "color": "білий"
    },
    {
      "id": 2,
      "name": "Сорочка чоловіча",
      "price": 349.99,
      "image": "https://i.pravatar.cc/300?v=${id}",
      "article": "789012",
      "color": "синій"
    },
    {
        "id": 3,
        "name": "Сукня вишивана",
        "price": 349.99,
        "image": "https://i.pravatar.cc/300?v=${id}",
        "article": "789012",
        "color": "синій"
      },
      {
        "id": 4,
        "name": "Сорочка чоловіча",
        "price": 349.99,
        "image": "https://i.pravatar.cc/300?v=${id}",
        "article": "789012",
        "color": "синій"
      },
      {
        "id": 5,
        "name": "Сукня вишивана",
        "price": 349.99,
        "image": "https://i.pravatar.cc/300?v=${id}",
        "article": "789012",
        "color": "синій"
      },
      {
        "id": 6,
        "name": "Сорочка чоловіча",
        "price": 349.99,
        "image": "https://i.pravatar.cc/300?v={id}",
        "article": "789012",
        "color": "синій"
      },
      {
        "id": 7,
        "name": "Сукня вишивана",
        "price": 349.99,
        "image": "https://i.pravatar.cc/300?v={id}",
        "article": "789012",
        "color": "синій"
      },
      {
        "id": 8,
        "name": "Сорочка чоловіча",
        "price": 349.99,
        "image": "https://i.pravatar.cc/300?v={id}",
        "article": "789012",
        "color": "синій"
      },
      {
        "id": 9,
        "name": "Сукня вишивана",
        "price": 349.99,
        "image": "https://i.pravatar.cc/300?v={id}",
        "article": "789012",
        "color": "синій"
      },
      {
        "id": 10,
        "name": "Сорочка чоловіча",
        "price": 349.99,
        "image": "https://i.pravatar.cc/300?v={id}",
        "article": "789012",
        "color": "синій"
      },
      {
        "id": 11,
        "name": "Сукня вишивана",
        "price": 349.99,
        "image": "https://i.pravatar.cc/300?v={id}",
        "article": "789012",
        "color": "синій"
      },
      {
        "id": 12,
        "name": "Сорочка чоловіча",
        "price": 349.99,
        "image": "https://i.pravatar.cc/300?v={id}",
        "article": "789012",
        "color": "синій"
      }
  ]